<?xml version="1.0" encoding="UTF-8"?>
<svg viewBox="0 0 34 30" version="1.1" xmlns="http://www.w3.org/2000/svg" xmlns:xlink="http://www.w3.org/1999/xlink">
    <!-- Generator: Sketch 49.1 (51147) - http://www.bohemiancoding.com/sketch -->
    <title>Ikon/dark/hem</title>
    <desc>Created with Sketch.</desc>
    <defs></defs>
    <g id="Ikon/dark/hem" stroke="none" stroke-width="1" fill="none" fill-rule="evenodd">
        <g id="home-copy-4" fill="#212121" fill-rule="nonzero">
            <path d="M33.6383946,11.4704658 L17.5218929,0.16349883 C17.2111123,-0.0544996101 16.7889021,-0.0544996101 16.4782542,0.16349883 L0.361619766,11.4704658 C-0.0320357607,11.7466862 -0.117566854,12.2763474 0.170702148,12.6535496 C0.45897115,13.0307518 1.01180217,13.1125807 1.40539129,12.8364876 L17.0000072,1.89558743 L32.5946231,12.8364239 C32.7518728,12.946823 32.9346225,12.9999546 33.1157784,12.9999546 C33.3877779,12.9999546 33.6561914,12.8800109 33.8292458,12.6534859 C34.1175812,12.2763474 34.0320501,11.7466862 33.6383946,11.4704658 Z" id="Shape"></path>
            <path d="M30.0999504,13 C29.6029747,13 29.1999684,13.4023365 29.1999684,13.898637 L29.1999684,28.2025908 L22.0002481,28.2025908 L22.0002481,20.3945879 C22.0002481,17.9168004 19.9813605,15.9010649 17.5,15.9010649 C15.0186395,15.9010649 12.9997519,17.9169355 12.9997519,20.3945879 L12.9997519,28.2026583 L5.79996392,28.2026583 L5.79996392,13.8987046 C5.79996392,13.402404 5.39695764,13.0000676 4.89998196,13.0000676 C4.40300628,13.0000676 4,13.402404 4,13.8987046 L4,29.101363 C4,29.5976635 4.40300628,30 4.89998196,30 L13.8997339,30 C14.3730312,30 14.7603421,29.6348844 14.7961979,29.1713463 C14.7983628,29.1503378 14.7997159,29.1273703 14.7997159,29.101363 L14.7997159,20.3946555 C14.7997159,18.9079154 16.0110349,17.6984066 17.5,17.6984066 C18.9889651,17.6984066 20.2002841,18.907983 20.2002841,20.3946555 L20.2002841,29.101363 C20.2002841,29.1272352 20.2016372,29.1497973 20.2038021,29.1705356 C20.239252,29.6344115 20.6266982,30 21.1002661,30 L30.100018,30 C30.5970614,30 31,29.5976635 31,29.101363 L31,13.8987046 C30.9999323,13.4023365 30.5969937,13 30.0999504,13 Z" id="Shape"></path>
        </g>
    </g>
</svg>
