<?xml version="1.0" encoding="UTF-8"?>
<svg viewBox="0 0 30 30" version="1.1" xmlns="http://www.w3.org/2000/svg" xmlns:xlink="http://www.w3.org/1999/xlink">
    <!-- Generator: Sketch 49.1 (51147) - http://www.bohemiancoding.com/sketch -->
    <title>Ikon/dark/info Copy</title>
    <desc>Created with Sketch.</desc>
    <defs></defs>
    <g id="Ikon/dark/info-Copy" stroke="none" stroke-width="1" fill="none" fill-rule="evenodd">
        <g id="Group" transform="translate(2.000000, 2.000000)">
            <circle id="Oval-2" stroke="#1D5294" stroke-width="3" cx="13" cy="13" r="13"></circle>
            <path d="M13.0000416,9 C13.0000416,9 13.0000416,9 13.0000416,9 C13.0000416,9 13.0000416,9 13.0000416,9 L13.0000416,9 C13.5523493,9 14.0000832,9.44773387 14.0000832,10.0000416 L14.0000832,19.9999584 C14.0000832,20.5522661 13.5523493,21 13.0000416,21 C13.0000416,21 13.0000416,21 13.0000416,21 C13.0000416,21 13.0000416,21 13.0000416,21 L13.0000416,21 C12.4477339,21 12,20.5522661 12,19.9999584 L12,10.0000416 C12,9.44773387 12.4477339,9 13.0000416,9 Z" id="Rectangle-2" fill="#1D5294"></path>
            <path d="M13.0000416,4.75001863 C13.0000416,4.75001863 13.0000416,4.75001863 13.0000416,4.75001863 C13.0000416,4.75001863 13.0000416,4.75001863 13.0000416,4.75001863 L13.0000416,4.75001863 C13.6903844,4.75001863 14.250018,5.30965166 14.2500188,5.99999447 L14.2500174,5.99999447 C14.2500174,6.69033728 13.6903844,7.24997091 13.0000416,7.24997166 C13.0000416,7.24997031 13.0000416,7.24997031 13.0000416,7.24997031 C13.0000416,7.24997031 13.0000416,7.24997031 13.0000416,7.24997031 L13.0000416,7.24997031 C12.3096988,7.24997031 11.7500651,6.69033728 11.7500644,5.99999447 L11.7500644,5.99999447 C11.7500651,5.30965166 12.3096988,4.75001863 13.0000416,4.75001863 Z" id="Rectangle-2-Copy" fill="#333333"></path>
        </g>
    </g>
</svg>