<?xml version="1.0" encoding="UTF-8"?>
<svg viewBox="0 0 34 30" version="1.1" xmlns="http://www.w3.org/2000/svg" xmlns:xlink="http://www.w3.org/1999/xlink">
    <!-- Generator: Sketch 49.1 (51147) - http://www.bohemiancoding.com/sketch -->
    <title>Ikon/dark/megafon</title>
    <desc>Created with Sketch.</desc>
    <defs></defs>
    <g id="Ikon/dark/megafon" stroke="none" stroke-width="1" fill="none" fill-rule="evenodd">
        <g id="megaphone-copy" fill="#333333" fill-rule="nonzero">
            <path d="M29.70337,7.17938326 L29.70337,1.73577093 C29.70337,1.13629956 29.3949119,0.597422907 28.8782379,0.294317181 C28.3595815,-0.00997797357 27.7357269,-0.0162555066 27.2096696,0.277995595 C22.1860573,3.08742291 16.7212335,4.72810573 10.9670485,5.15477974 C10.9229736,5.15801762 5.72220264,5.1807489 5.72220264,5.1807489 C4.41601322,5.1807489 3.33640969,6.16685022 3.18700441,7.43345815 L2.11949339,7.43345815 C0.950881057,7.43345815 0,8.38420705 0,9.55288546 L0,14.2093612 C0,15.3780396 0.950881057,16.3288546 2.11949339,16.3288546 L3.18687225,16.3288546 C3.29444934,17.2404185 3.88361233,18.0061454 4.69248899,18.3640308 L8.49105727,28.8473789 C8.72848018,29.4999119 9.35451542,29.9384141 10.0490749,29.9384141 L13.8609912,29.9384141 C14.4013877,29.9384141 14.9090088,29.674163 15.2189868,29.2315639 C15.5289648,28.7888326 15.6037004,28.2214097 15.419207,27.7143833 L12.1556167,18.7119383 C17.4738106,19.2644273 22.5326432,20.8661894 27.2096035,23.4817401 C27.4676432,23.6260573 27.749207,23.6980176 28.0303084,23.6980176 C28.3221806,23.6979515 28.6137885,23.6203744 28.8780396,23.4653524 C29.3947137,23.1621806 29.703304,22.62337 29.703304,22.0237665 L29.703304,16.5801542 C32.0293612,16.2788326 33.8325991,14.2866079 33.8325991,11.8798018 C33.8325991,9.47292952 32.0293612,7.48063877 29.70337,7.17938326 Z M3.16856828,14.694185 L2.11949339,14.694185 C1.85207048,14.694185 1.63460352,14.4767181 1.63460352,14.2092952 L1.63460352,9.55288546 C1.63460352,9.28566079 1.85207048,9.06806167 2.11949339,9.06806167 L3.16856828,9.06806167 L3.16856828,14.694185 Z M5.34779736,16.8664097 C5.02731278,16.7227533 4.80317181,16.4012775 4.80317181,16.0279956 L4.80317181,7.73418502 L4.80323789,7.73418502 C4.80323789,7.22755507 5.21550661,6.81535242 5.72213656,6.81535242 L10.1714537,6.81535242 L10.1714537,16.9468943 C10.1714537,16.9468943 5.68334802,16.9451762 5.66398678,16.9439868 C5.50004405,16.925022 5.46555066,16.9165639 5.34779736,16.8664097 Z M13.8826652,28.2722247 C13.8853084,28.2788987 13.8870264,28.2836564 13.8799559,28.2936344 C13.8730176,28.3036123 13.8678634,28.3036123 13.8609251,28.3036123 L10.0490088,28.3036123 C10.0392952,28.3036123 10.0303744,28.297467 10.0274009,28.2894053 L6.50980176,18.5814317 L10.3695595,18.5814317 L13.8826652,28.2722247 Z M28.0687665,22.0238326 C28.0687665,22.0356608 28.0687665,22.0451101 28.0511233,22.0554846 C28.0301101,22.0676432 28.0175551,22.0607048 28.007511,22.0550881 C22.9832379,19.2453965 17.5359912,17.5587225 11.8060573,17.0357048 L11.8060573,6.72469163 C17.5364537,6.20088106 22.9837004,4.51407489 28.0073128,1.70464758 C28.0176211,1.69903084 28.0303744,1.69209251 28.0511233,1.7042511 C28.0687665,1.71462555 28.0687665,1.72394273 28.0687665,1.73577093 L28.0687665,22.0238326 Z M29.70337,14.9255286 L29.70337,8.83400881 C31.1242731,9.11907489 32.1979956,10.3762335 32.1979956,11.8797357 C32.1979956,13.383304 31.124207,14.6405286 29.70337,14.9255286 Z" id="Shape"></path>
        </g>
    </g>
</svg>